distance,common_diff_mean,common_diff_median,common_diff_sem,common_diff_std,common_diff_count,common_diff_min,common_diff_max,common_diff_skew,common_diff_p025,common_diff_p975,common_total_mean,common_total_median,common_total_sem,common_total_std,common_total_count,common_total_min,common_total_max,common_total_skew,common_total_p025,common_total_p975,common_union_mean,common_union_median,common_union_sem,common_union_std,common_union_count,common_union_min,common_union_max,common_union_skew,common_union_p025,common_union_p975,level
20.0,0.5476190476190477,0.5714285714285714,0.050194883494736185,0.15873015873015875,10,0.2857142857142857,0.7142857142857143,-0.815625,0.2857142857142857,0.7142857142857143,0.3,0.3333333333333333,0.02832788618662658,0.08958064164776165,10,0.16666666666666666,0.4166666666666667,-0.3220132532604451,0.16666666666666666,0.4166666666666667,0.3471717171717172,0.36363636363636365,0.02294696165338609,0.0725646642052433,10,0.2222222222222222,0.4166666666666667,-1.0656651984634238,0.2222222222222222,0.4166666666666667,1
30.0,0.8154761904761905,0.7142857142857143,0.11774370958460757,0.333029501957342,8,0.5,1.3333333333333333,1.087153767425998,0.5,1.3333333333333333,0.3541666666666667,0.375,0.026115965438667035,0.07386710503565988,8,0.25,0.4166666666666667,-0.6153557179830168,0.25,0.4166666666666667,0.43452380952380953,0.4166666666666667,0.0325248154743287,0.0919940703149559,8,0.3333333333333333,0.5714285714285714,0.743012019118528,0.3333333333333333,0.5714285714285714,1
40.0,0.4305555555555555,0.375,0.07807482956975108,0.19124349420065004,6,0.25,0.6666666666666666,0.6094909629307691,0.25,0.6666666666666666,0.25,0.25,0.03042903097250923,0.07453559924999298,6,0.16666666666666666,0.3333333333333333,-2.0073616004772873e-16,0.16666666666666666,0.3333333333333333,0.29090909090909095,0.2727272727272727,0.03696472892600463,0.09054472434900898,6,0.2,0.4,0.437236328233216,0.2,0.4,1
50.0,0.825,0.825,0.24537386440559095,0.4907477288111819,4,0.4,1.25,0.0,0.4,1.25,0.2916666666666667,0.2916666666666667,0.07216878364870323,0.14433756729740646,4,0.16666666666666666,0.4166666666666667,-1.922962686383563e-16,0.16666666666666666,0.4166666666666667,0.42063492063492064,0.42063492063492064,0.0778964648906638,0.1557929297813276,4,0.2857142857142857,0.5555555555555556,-1.529205204438959e-16,0.2857142857142857,0.5555555555555556,1
60.0,0.6,0.6,0.0,0.0,2,0.6,0.6,,0.6,0.6,0.25,0.25,0.0,0.0,2,0.25,0.25,,0.25,0.25,0.375,0.375,0.0,0.0,2,0.375,0.375,,0.375,0.375,1
40.0,3.0,3.0,0.0,0.0,4,3.0,3.0,0.0,3.0,3.0,0.75,0.75,0.0,0.0,4,0.75,0.75,0.0,0.75,0.75,0.75,0.75,0.0,0.0,4,0.75,0.75,0.0,0.75,0.75,2
60.0,1.0,1.0,0.0,0.0,2,1.0,1.0,,1.0,1.0,0.5,0.5,0.0,0.0,2,0.5,0.5,,0.5,0.5,0.5,0.5,0.0,0.0,2,0.5,0.5,,0.5,0.5,2
60.0,5.0,5.0,0.0,0.0,2,5.0,5.0,,5.0,5.0,0.8333333333333334,0.8333333333333334,0.0,0.0,2,0.8333333333333334,0.8333333333333334,,0.8333333333333334,0.8333333333333334,0.8333333333333334,0.8333333333333334,0.0,0.0,2,0.8333333333333334,0.8333333333333334,,0.8333333333333334,0.8333333333333334,3
