common_diff,common_total,common_union,distance,level
0.5,0.25,0.3333333333333333,20.0,1
0.7142857142857143,0.4166666666666667,0.4166666666666667,30.0,1
0.6666666666666666,0.3333333333333333,0.4,40.0,1
1.25,0.4166666666666667,0.5555555555555556,50.0,1
0.6,0.25,0.375,60.0,1
0.5,0.25,0.3333333333333333,20.0,1
0.5714285714285714,0.3333333333333333,0.36363636363636365,20.0,1
0.5,0.25,0.3333333333333333,30.0,1
0.25,0.16666666666666666,0.2,40.0,1
0.4,0.16666666666666666,0.2857142857142857,50.0,1
0.7142857142857143,0.4166666666666667,0.4166666666666667,30.0,1
0.5714285714285714,0.3333333333333333,0.36363636363636365,20.0,1
0.7142857142857143,0.4166666666666667,0.4166666666666667,20.0,1
0.7142857142857143,0.4166666666666667,0.4166666666666667,30.0,1
0.375,0.25,0.2727272727272727,40.0,1
0.6666666666666666,0.3333333333333333,0.4,40.0,1
0.5,0.25,0.3333333333333333,30.0,1
0.7142857142857143,0.4166666666666667,0.4166666666666667,20.0,1
0.6666666666666666,0.3333333333333333,0.4,20.0,1
1.3333333333333333,0.3333333333333333,0.5714285714285714,30.0,1
1.25,0.4166666666666667,0.5555555555555556,50.0,1
0.25,0.16666666666666666,0.2,40.0,1
0.7142857142857143,0.4166666666666667,0.4166666666666667,30.0,1
0.6666666666666666,0.3333333333333333,0.4,20.0,1
0.2857142857142857,0.16666666666666666,0.2222222222222222,20.0,1
0.6,0.25,0.375,60.0,1
0.4,0.16666666666666666,0.2857142857142857,50.0,1
0.375,0.25,0.2727272727272727,40.0,1
1.3333333333333333,0.3333333333333333,0.5714285714285714,30.0,1
0.2857142857142857,0.16666666666666666,0.2222222222222222,20.0,1
3.0,0.75,0.75,40.0,2
1.0,0.5,0.5,60.0,2
3.0,0.75,0.75,40.0,2
3.0,0.75,0.75,40.0,2
1.0,0.5,0.5,60.0,2
3.0,0.75,0.75,40.0,2
5.0,0.8333333333333334,0.8333333333333334,60.0,3
5.0,0.8333333333333334,0.8333333333333334,60.0,3
