jaccard_dissimilarity,log_jaccard_dissimilarity,distance,level
1.0,0.0,50.0,1
1.0,0.0,50.0,1
1.0,0.0,50.0,1
1.0,0.0,50.0,1
1.0,0.0,50.0,1
1.0,0.0,50.0,1
1.0,0.0,50.0,1
1.0,0.0,50.0,1
1.0,0.0,50.0,1
1.0,0.0,50.0,1
1.0,0.0,50.0,1
1.0,0.0,50.0,1
0.5714285714285714,-0.24303804868629447,60.0,2
0.5714285714285714,-0.24303804868629447,60.0,2
0.7777777777777778,-0.10914446942506803,60.0,2
0.5714285714285714,-0.24303804868629447,60.0,2
0.8571428571428572,-0.06694678963061317,60.0,2
0.7142857142857143,-0.146128035678238,60.0,2
0.5714285714285714,-0.24303804868629447,60.0,2
0.8571428571428572,-0.06694678963061317,60.0,2
0.7142857142857143,-0.146128035678238,60.0,2
0.7777777777777778,-0.10914446942506803,60.0,2
0.7142857142857143,-0.146128035678238,60.0,2
0.7142857142857143,-0.146128035678238,60.0,2
0.33333333333333337,-0.4771212547196624,80.0,3
0.3846153846153846,-0.41497334797081803,80.0,3
0.46153846153846156,-0.3357921019231931,80.0,3
0.33333333333333337,-0.4771212547196624,80.0,3
0.30000000000000004,-0.5228787452803375,80.0,3
0.2222222222222222,-0.6532125137753437,80.0,3
0.3846153846153846,-0.41497334797081803,80.0,3
0.30000000000000004,-0.5228787452803375,80.0,3
0.30000000000000004,-0.5228787452803375,80.0,3
0.46153846153846156,-0.3357921019231931,80.0,3
0.2222222222222222,-0.6532125137753437,80.0,3
0.30000000000000004,-0.5228787452803375,80.0,3
