n_species_mean,n_species_med,n_species_sem,n_species_std,n_species_count,n_species_p025,n_species_p975,n_species_min,n_species_max,n_species_skew,n_species_kurtosis,area,level
7.0,7.0,0.0,0.0,10,7.0,7.0,7,7,0.0,0.0,600.0,1
10.0,10.0,0.0,0.0,10,10.0,10.0,10,10,0.0,0.0,1200.0,1
9.3,9.0,0.15275252316519464,0.4830458915396479,10,9.0,10.0,9,10,1.0350983390135262,-1.2244897959183758,1200.0,2
12.0,12.0,0.0,0.0,10,12.0,12.0,12,12,0.0,0.0,2400.0,2
11.4,12.0,0.30550504633038933,0.9660917830792959,10,10.0,12.0,10,12,-1.0350983390135327,-1.2244897959183647,1800.0,3
12.0,12.0,0.0,0.0,10,12.0,12.0,12,12,0.0,0.0,3600.0,3
