common_diff,common_total,common_union,distance,level
0.6666666666666666,0.4,0.4,40.0,1
0.6666666666666666,0.4,0.4,40.0,1
1.4,0.5833333333333334,0.5833333333333334,50.0,2
1.4,0.5833333333333334,0.5833333333333334,50.0,2
5.0,0.8333333333333334,0.8333333333333334,60.0,3
5.0,0.8333333333333334,0.8333333333333334,60.0,3
