distance,common_diff_mean,common_diff_median,common_diff_sem,common_diff_std,common_diff_count,common_diff_min,common_diff_max,common_diff_skew,common_diff_p025,common_diff_p975,common_total_mean,common_total_median,common_total_sem,common_total_std,common_total_count,common_total_min,common_total_max,common_total_skew,common_total_p025,common_total_p975,common_union_mean,common_union_median,common_union_sem,common_union_std,common_union_count,common_union_min,common_union_max,common_union_skew,common_union_p025,common_union_p975,level
50.0,0.0,0.0,0.0,0.0,12,0.0,0.0,0.0,0.0,0.0,0.0,0.0,0.0,0.0,12,0.0,0.0,0.0,0.0,0.0,0.0,0.0,0.0,0.0,12,0.0,0.0,0.0,0.0,0.0,1
60.0,0.4587301587301587,0.4,0.06649336714100756,0.23033978050911202,12,0.16666666666666666,0.75,0.3378496601159266,0.16666666666666666,0.75,0.24074074074074073,0.2222222222222222,0.023021539278076333,0.0797489513961415,12,0.1111111111111111,0.3333333333333333,-0.2622609114425356,0.1111111111111111,0.3333333333333333,0.2989417989417989,0.2857142857142857,0.03119001619722644,0.10804538548498484,12,0.14285714285714285,0.42857142857142855,0.016910576352496775,0.14285714285714285,0.42857142857142855,2
80.0,2.1555555555555554,2.166666666666667,0.21955469676354353,0.760559779669671,12,1.1666666666666667,3.5,0.6442572071476579,1.1666666666666667,3.5,0.5641025641025641,0.5384615384615384,0.0109333700695185,0.03787430491671782,12,0.5384615384615384,0.6153846153846154,0.8124038404635958,0.5384615384615384,0.6153846153846154,0.6663817663817664,0.6833333333333333,0.022574394823031106,0.07819999756721942,12,0.5384615384615384,0.7777777777777778,-0.35019170680669953,0.5384615384615384,0.7777777777777778,3
