ref,area,locality,transect,quadrat,coord_x,coord_y,direction,t,distance,species,name,morph,individuals,significant_size,family,phase,date
1,Baristan,Rammstein,R_1_1/6/2023,1,0,0,f,0:00,0,Puppe,Pupe,Puppe,-1,False,Metalidae,juv,2023-01-06
2,Baristan,Rammstein,R_1_1/6/2023,2,1,2,f,0:10,1,Dicke Titten,Dike Titen,Dicke Titten,9,True,Sexidae,ad,2023-01-06
3,Baristan,Rammstein,,,,,f,0:20,2,Dicke Titten,Dike Titen,Dicke Titten,9,True,Sexidae,ad,2023-01-06
4,Baristan,Rammstein,R_2_1/6/2023,1,1,0,f,0:30,0,Frühling in paris,Frýling in Paris,M Liebe ist für alle da,6,False,Romantidae,ad,2023-01-06
5,Baristan,Rammstein,R_2_1/6/2023,2,1,1,f,0:40,1,Keine Lust,Kajne Lust,Keine Lust,4,True,Metalidae,init,2023-01-06
,Baristan,Rammstein,R_2_1/6/2023,3,1,0,f,0:50,2,Frühling in paris,Frýling in Paris,M juv romant,6,False,Romantidae,juv,2023-01-06
7,Baristan,Rammstein,R_3_2/6/2023,1,2,0,f,1:00,0,Puppe,Pupe,Puppe,6,True,Metalidae,juv,2023-02-06
8,Baristan,Rammstein,R_3_2/6/2023,2,2,1,f,1:10,1,,Frýling in Paris,M Liebe ist für alle da,6,True,Romantidae,ad,2023-02-06
9,Baristan,Rammstein,R_3_2/6/2023,3,2,2,f,1:20,2,Waidmenns Heil,Wajdmand Hajl,M Liebe ist für alle da,3,False,Metalidae,ad,2023-02-06
9,Baristan,Rammstein,R_3_2/6/2023,3,2,2,f,1:20,2,Waidmenns Heil,Wajdmand Hajl,M Liebe ist für alle da,3,False,Metalidae,ad,2023-02-06
10,Baristan,Haken,H_1_1/2/2023,1,0,0,f,,0,Elephants never forget,Elefants nevr frget,M Fauna,8,False,Progridae,ad,2023-01-02
11,Baristan,Haken,H_1_1/2/2023,2,0,1,f,1:40,1,Virus sp.,Virus,Virus sp.,1,True,Metalidae,ad,2023-01-02
12,Baristan,,H_1_1/2/2023,3,0,2,f,1:50,2,Falling Back to Earth,Fóling bek to érs,Falling Back to Earth,,True,Progridae,ad,2023-01-02
13,Baristan,Haken,H_2_2/2/2023,1,1,0,f,2:00,0,Virus sp.,Virus,Vector-Virus,,True,Metalidae,ad,2023-02-02
14,Baristan,Haken,H_2_2/2/2023,2,1,1,f,2:10,1,Eyes of Ebony,Ajs of Ebony,M Fauna,9,False,,ad,2023-02-02
14,Baristan,Haken,H_2_2/2/2023,3,1,2,f,2:20,2,Nill by Mouth,Nil byj maus,Nill by Mouth,5,True,Scaridae,term,2023-02-02
14,Baristan,Haken,H_3_3/2/2023,1,2,0,f,2:30,0,Nill by Mouth,Nil byj maus,Nill by Mouth,5,False,Scaridae,term,2023-03-02
17,Baristan,Haken,H_3_3/2/2023,2,2,1,f,2:40,1,Virus sp.,Virus,Virus,1,True,Metalidae,ad,2023-03-02
18,,Haken,H_3_3/2/2023,3,2,2,f,2:50,2,The Celestial Elixir,D celestijal elixir,The Celestial Elixir,7,True,Progridae,juv,2023-03-02
19,,Powerwolf,P_1_8/6/2023,1,0,0,f,3:00,0,Army of the Night,Ármy of d najt,M Blessed and Possessed,3,True,Metalidae,ad,2023-08-06
20,Martystan,Powerwolf,P_1_8/6/2023,2,0,1,f,3:10,1,Incense and Iron,Insens end ajron,M juv sacr,4,True,Metalidae,juv,2023-08-06
21,Martystan,Powerwolf,P_1_8/6/2023,3,0,2,f,3:20,2,Army of the Night,Ármy of d najt,M Blessed and Possessed,3,True,Metalidae,ad,2023-08-06
22,Martystan,Powerwolf,P_2_8/6/2023,1,1,0,f,3:30,0,Sanctus Dominis,sanktus dominis,M Blessed and Possessed,8,False,Progridae,ad,2023-08-06
23,Martystan,Powerwolf,P_2_8/6/2023,2,1,1,f,3:40,,Amen and Attack,Ejmen and etek,Amen and Attack,1,True,Metalidae,ad,2023-08-06
24,Martystan,Powerwolf,P_2_8/6/2023,3,1,2,f,3:50,,Ressurection by Erection,Resurekšn baj erekšn,Ressurection by Erection,9,False,Sexidae,ad,2023-08-06
25,Martystan,Powerwolf,P_3_9/6/2023,1,2,0,f,4:00,0,Sanctus Dominis,sanktus dominis,M Blessed and Possessed,8,True,Metalidae,ad,2023-09-06
26,Martystan,Powerwolf,P_3_9/6/2023,2,2,1,f,4:10,1,Ressurection by Erection,Resurekšn baj erekšn,Ressurection by Erection,9,True,Sexidae,ad,2023-09-06
27,Martystan,Powerwolf,P_3_9/6/2023,3,2,2,f,4:20,2,Incense and Iron,Insens,Incense and Iron,4,True,Progridae,ad,2023-09-06
27,Martystan,Powerwolf,P_3_9/6/2023,3,2,2,f,4:20,2,Incense and Iron,Insens end ajron,Incense and Iron,4,True,Progridae,juv,2023-09-06
28,Martystan,Ori and the Will of the Wisps,O_1_7/3/2023,1,0,0,f,4:30,0,Main theme,Mejn thým,,1,True,Labridae,term,2023-07-03
29,Martystan,Ori and the Will of the Wisps,O_1_7/3/2023,2,0,1,f,4:40,1,Turn Turn Turn again,Turn turn turn egejn,M Original soundtrack,21,True,Sountrackidae,ad,2023-07-03
30,Martystan,,O_1_7/3/2023,3,2,2,f,4:50,2,Sanctuary in the glades,Senkšuery in d glejds,M Original soundtrack,17,True,Romantidae,ad,2023-07-03
31,Martystan,Ori and the Will of the Wisps,O_2_8/3/2023,1,1,0,f,5:00,0,Sanctuary in the glades,Senkšuery in d glejds,M juv romant,17,True,Romantidae,juv,2023-08-03
32,Martystan,Ori and the Will of the Wisps,O_2_8/3/2023,2,1,1,f,5:10,1,Amelioration,ameliorejšn,M Original soundtrack,22,True,Sountrackidae,ad,2023-08-03
33,Martystan,Ori and the Will of the Wisps,O_2_8/3/2023,3,1,2,f,5:20,2,Sanctuary in the glades,Senkšuery in d glejds,M Original soundtrack,17,False,Romantidae,juv,2023-08-03
35,Martystan,Ori and the Will of the Wisps,O_3_8/3/2023,1,2,0,f,5:30,0,Main theme,Mejn thým,M Original soundtrack,1,True,Labridae,term,2023-08-03
34,Martystan,Ori and the Will of the Wisps,O_3_8/3/2023,2,2,1,,5:40,1,Main theme,Mejn thým,M Original soundtrack,1,False,Labridae,term,2023-08-03
36,Martystan,Ori and the Will of the Wisps,O_3_8/3/2023,3,2,2,f,5:50,2,Turn Turn Turn again,Turn turn turn egejn,M Original soundtrack,21,True,Sountrackidae,ad,2023-08-03
