coord_x,coord_y,species,individuals
0,0,A,1
0,0,B,2
0,0,C,3
0,1,D,1
0,1,B,2
0,1,E,3
0,2,C,1
0,2,F,1
0,2,C,3
0,3,F,1
0,3,C,2
0,4,H,3
0,5,C,1
0,6,C,2
0,6,C,3
0,7,H,1
1,0,G,3
1,0,C,1
1,0,D,2
1,1,C,3
1,1,C,1
1,1,C,2
1,2,F,3
1,2,C,1
1,3,C,2
1,3,F,3
1,4,H,1
1,4,D,2
1,5,E,3
1,6,L,1
1,7,K,2
2,0,H,1
2,1,F,2
2,1,A,3
2,1,I,1
2,1,J,2
2,1,K,3
2,2,E,1
2,2,L,2
2,2,C,3
2,3,G,1
2,3,A,2
2,4,B,3
2,5,C,1
2,6,D,2
2,7,E,3
2,7,E,1
2,7,A,2
3,0,C,2
3,0,D,3
3,1,B,1
3,2,E,2
3,3,L,3
3,4,H,1
3,4,D,2
3,5,E,3
3,6,A,1
3,7,A,2
4,0,L,2
4,1,A,3
4,1,B,1
4,2,F,2
4,3,F,3
4,5,K,2
4,6,C,3
4,7,C,1
5,0,C,1
5,1,C,2
5,2,H,3
5,3,D,1
5,3,E,2
5,3,E,3
5,4,B,1
5,4,E,2
5,5,L,3
5,5,H,1
5,6,D,2
5,7,E,3
6,0,L,3
6,0,H,1
6,0,D,2
6,1,B,2
6,1,F,3
6,2,F,1
6,3,L,2
6,4,K,3
6,5,C,1
6,6,C,2
6,7,M,3
7,0,C,2
7,0,M,3
7,0,L,2
7,1,L,2
7,1,L,3
7,2,L,1
7,2,L,2
7,3,L,3
7,4,L,1
7,5,L,2
7,6,D,3
7,6,D,1
7,6,D,2
7,7,D,3
