coord_x,coord_y,quadrat_type
0,0,normal
0,1,normal
0,2,normal
0,3,normal
0,4,normal
0,5,normal
0,6,normal
0,7,normal
1,0,normal
1,1,normal
1,2,normal
1,3,normal
1,4,normal
1,5,normal
1,6,normal
1,7,normal
2,0,normal
2,1,normal
2,2,normal
2,3,normal
2,4,normal
2,5,normal
2,6,normal
2,7,normal
3,0,normal
3,1,normal
3,2,normal
3,3,normal
3,4,normal
3,5,normal
3,6,normal
3,7,normal
4,0,normal
4,1,normal
4,2,normal
4,3,normal
4,4,normal
4,5,normal
4,6,normal
4,7,normal
5,0,normal
5,1,normal
5,2,normal
5,3,normal
5,4,normal
5,5,normal
5,6,normal
5,7,normal
6,0,normal
6,1,normal
6,2,normal
6,3,normal
6,4,normal
6,5,normal
6,6,normal
6,7,normal
7,0,normal
7,1,normal
7,2,normal
7,3,normal
7,4,normal
7,5,normal
7,6,normal
7,7,normal
